{
  "project_info": {
    "project_number": "160083047850",
    "firebase_url": "https://openmart-86883.firebaseio.com",
    "project_id": "openmart-86883",
    "storage_bucket": "openmart-86883.appspot.com"
  },
  "client": [
    {
      "client_info": {
        "mobilesdk_app_id": "1:160083047850:android:b201dc5233735221",
        "android_client_info": {
          "package_name": "com.allensdroid.openmart"
        }
      },
      "oauth_client": [
        {
          "client_id": "160083047850-udg467njrnltqdprs4ftdqo2sd1lc4m3.apps.googleusercontent.com",
          "client_type": 1,
          "android_info": {
            "package_name": "com.allensdroid.openmart",
            "certificate_hash": "8cf66cdbef6a213fc00942dda0964bfa004c58bc"
          }
        },
        {
          "client_id": "160083047850-dqgjps2d46961j7doogbh6de5u5snk64.apps.googleusercontent.com",
          "client_type": 3
        }
      ],
      "api_key": [
        {
          "current_key": "AIzaSyAX9KiTOxoq2_9oRF9ChbMOtRYCup0nkuk"
        }
      ],
      "services": {
        "analytics_service": {
          "status": 1
        },
        "appinvite_service": {
          "status": 2,
          "other_platform_oauth_client": [
            {
              "client_id": "160083047850-dqgjps2d46961j7doogbh6de5u5snk64.apps.googleusercontent.com",
              "client_type": 3
            }
          ]
        },
        "ads_service": {
          "status": 2
        }
      }
    }
  ],
  "configuration_version": "1"
}